STA 9750 - OMSBA – Software Tools for Data AnalysisSTA 9750Michael Weylandt
…
Perform conditional transformations

Compute running and cumulative statistics

Apply simple aggregation and window functions

mutate

So far we have only subsetted our data. Can we create new columns?

penguins |> 
    mutate(body_mass_lb = body_mass_g / 453) |>
    select(contains("body"))

# A tibble: 344 × 2
   body_mass_g body_mass_lb
         <int>        <dbl>
 1        3750         8.28
 2        3800         8.39
 3        3250         7.17
 4          NA        NA   
 5        3450         7.62
 6        3650         8.06
 7        3625         8.00
 8        4675        10.3 
 9        3475         7.67
10        4250         9.38
# ℹ 334 more rows
mutate

penguins |> 
    mutate(body_mass_lb = body_mass_g / 453) |>
    select(contains("body"))

Similar syntax to select and filter

Put name on the left of the =

If you omit a name, unhelpful default:

penguins |> mutate(body_mass_g / 453) |> select(contains("body"))

# A tibble: 344 × 2
  body_mass_g `body_mass_g/453`
        <int>             <dbl>
1        3750              8.28
2        3800              8.39
3        3250              7.17
# ℹ 341 more rows
…
