STA 9750 - OMSBA – Software Tools for Data AnalysisSTA 9750Michael Weylandt
…
mutate: Create new columns

filter: Keep and drop rows

For each of these, we have operated on the whole data set

Often, we instead want to operate on chunks of the data at a time

group_by

Recall our penguins:

penguins

# A tibble: 344 × 3
  species bill_length_mm body_mass_g
  <fct>            <dbl>       <int>
1 Adelie            39.1        3750
2 Adelie            39.5        3800
3 Adelie            40.3        3250
# ℹ 341 more rows
…
Looking Closer

Let’s take this step-by-step

penguins |> group_by(species)

# A tibble: 344 × 8
# Groups:   species [3]
   species island    bill_length_mm bill_depth_mm flipper_length_mm body_mass_g
   <fct>   <fct>              <dbl>         <dbl>             <int>       <int>
 1 Adelie  Torgersen           39.1          18.7               181        3750
 2 Adelie  Torgersen           39.5          17.4               186        3800
 3 Adelie  Torgersen           40.3          18                 195        3250
 4 Adelie  Torgersen           NA            NA                  NA          NA
 5 Adelie  Torgersen           36.7          19.3               193        3450
 6 Adelie  Torgersen           39.3          20.6               190        3650
 7 Adelie  Torgersen           38.9          17.8               181        3625
 8 Adelie  Torgersen           39.2          19.6               195        4675
 9 Adelie  Torgersen           34.1          18.1               193        3475
10 Adelie  Torgersen           42            20.2               190        4250
# ℹ 334 more rows
# ℹ 2 more variables: sex <fct>, year <int>
…
or even

penguins |> 
    mutate(mass_max = max(body_mass_g, na.rm=TRUE))
    filter(body_mass_g == mass_max)

Effects of group_by

Looking at the first step

penguins |> 
    mutate(mass_max = max(body_mass_g, na.rm=TRUE))

# A tibble: 344 × 3
  species body_mass_g mass_max
  <fct>         <int>    <int>
1 Adelie         3750     6300
2 Adelie         3800     6300
3 Adelie         3250     6300
# ℹ 341 more rows

With group_by, a different max for each group

penguins |> 
    group_by(species) |>
    mutate(mass_max = max(body_mass_g, na.rm=TRUE))

# A tibble: 344 × 3
# Groups:   species [3]
  species body_mass_g mass_max
  <fct>         <int>    <int>
1 Adelie         3750     4775
2 Adelie         3800     4775
3 Adelie         3250     4775
# ℹ 341 more rows
…
gives a 3 row answer (one per group)

Effects of group_by

Operations do not have to select only a single row like slice_max

To get “above average” penguins for each species

Compound Grouping

Can apply group_by to create “compound” groups

penguins |> group_by(species, year)

# A tibble: 344 × 8
# Groups:   species, year [9]
   species island    bill_length_mm bill_depth_mm flipper_length_mm body_mass_g
   <fct>   <fct>              <dbl>         <dbl>             <int>       <int>
 1 Adelie  Torgersen           39.1          18.7               181        3750
 2 Adelie  Torgersen           39.5          17.4               186        3800
 3 Adelie  Torgersen           40.3          18                 195        3250
 4 Adelie  Torgersen           NA            NA                  NA          NA
 5 Adelie  Torgersen           36.7          19.3               193        3450
 6 Adelie  Torgersen           39.3          20.6               190        3650
 7 Adelie  Torgersen           38.9          17.8               181        3625
 8 Adelie  Torgersen           39.2          19.6               195        4675
 9 Adelie  Torgersen           34.1          18.1               193        3475
10 Adelie  Torgersen           42            20.2               190        4250
# ℹ 334 more rows
# ℹ 2 more variables: sex <fct>, year <int>
…
Compound Grouping

Missing ‘combinations’ automatically dropped:

penguins |> 
    group_by(species, island) 

# A tibble: 344 × 4
# Groups:   species, island [5]
   species island    body_mass_g sex   
   <fct>   <fct>           <int> <fct> 
 1 Adelie  Torgersen        3750 male  
 2 Adelie  Torgersen        3800 female
 3 Adelie  Torgersen        3250 female
 4 Adelie  Torgersen          NA <NA>  
 5 Adelie  Torgersen        3450 female
 6 Adelie  Torgersen        3650 male  
 7 Adelie  Torgersen        3625 female
 8 Adelie  Torgersen        4675 male  
 9 Adelie  Torgersen        3475 <NA>  
10 Adelie  Torgersen        4250 <NA>  
# ℹ 334 more rows
…
# A tibble: 5 × 8
  species   island    bill_length_mm bill_depth_mm flipper_length_mm body_mass_g
  <fct>     <fct>              <dbl>         <dbl>             <int>       <int>
1 Adelie    Biscoe              43.2          19                 197        4775
2 Adelie    Dream               39.8          19.1               184        4650
3 Adelie    Torgersen           42.9          17.6               196        4700
4 Chinstrap Dream               52            20.7               210        4800
5 Gentoo    Biscoe              49.2          15.2               221        6300
# ℹ 2 more variables: sex <fct>, year <int>

Grouping on Numeric Variables

In general, grouping on continuous variables is a bad choice:

# A tibble: 344 × 8
# Groups:   body_mass_g [95]
   species island    bill_length_mm bill_depth_mm flipper_length_mm body_mass_g
   <fct>   <fct>              <dbl>         <dbl>             <int>       <int>
 1 Adelie  Torgersen           39.1          18.7               181        3750
 2 Adelie  Torgersen           39.5          17.4               186        3800
 3 Adelie  Torgersen           40.3          18                 195        3250
 4 Adelie  Torgersen           NA            NA                  NA          NA
 5 Adelie  Torgersen           36.7          19.3               193        3450
 6 Adelie  Torgersen           39.3          20.6               190        3650
 7 Adelie  Torgersen           38.9          17.8               181        3625
 8 Adelie  Torgersen           39.2          19.6               195        4675
 9 Adelie  Torgersen           34.1          18.1               193        3475
10 Adelie  Torgersen           42            20.2               190        4250
# ℹ 334 more rows
# ℹ 2 more variables: sex <fct>, year <int>
(Analogy: Checking exact equality of continuous random variables)

Grouping on Numeric Variables

Better choices:

Group on quantiles (ntile) or cut points (cut)

rowwise Operations

Rarely, you may need to apply an operation to each row separately without vectorization

rowwise lets you do so - makes each row its own group

# A tibble: 344 × 4
# Rowwise: 
  sex    island    flipper_length_mm body_mass_g
  <fct>  <fct>                 <int>       <int>
1 male   Torgersen               181        3750
2 female Torgersen               186        3800
# ℹ 342 more rows
…
