Software Tools for Data AnalysisSTA 9750Michael Weylandt – STA 9750 - OMSBA
…
No grouping remains

Removes grouping

summarize removes the last level of grouping

penguins |> 
    group_by(species, sex) |> 
    summarize(mass_avg = mean(body_mass_g, na.rm=TRUE))

`summarise()` has grouped output by 'species'. You can override using the
`.groups` argument.

# A tibble: 8 × 3
# Groups:   species [3]
  species   sex    mass_avg
  <fct>     <fct>     <dbl>
1 Adelie    female    3369.
2 Adelie    male      4043.
3 Adelie    <NA>      3540 
4 Chinstrap female    3527.
5 Chinstrap male      3939.
# ℹ 3 more rows
…
Multiple columns

Remember the selection helpers from select

penguins |> 
    select(where(is.numeric)) |>
    print(n=4)

# A tibble: 344 × 5
  bill_length_mm bill_depth_mm flipper_length_mm body_mass_g  year
           <dbl>         <dbl>             <int>       <int> <int>
1           39.1          18.7               181        3750  2007
2           39.5          17.4               186        3800  2007
3           40.3          18                 195        3250  2007
4           NA            NA                  NA          NA  2007
# ℹ 340 more rows
…
