STA 9750 - OMSBA – Software Tools for Data AnalysisSTA 9750Michael Weylandt
…
# A tibble: 3 × 3
  species   mass_mean mass_sd
  <fct>         <dbl>   <dbl>
1 Adelie        3701.    459.
2 Chinstrap     3733.    384.
3 Gentoo        5076.    504.

Computing Z-Scores

penguins |>
    inner_join(penguin_stats, 
               join_by(species == species)) |>
    select(species, body_mass_g, mass_mean, mass_sd)

# A tibble: 344 × 4
   species body_mass_g mass_mean mass_sd
   <fct>         <int>     <dbl>   <dbl>
 1 Adelie         3750     3701.    459.
 2 Adelie         3800     3701.    459.
 3 Adelie         3250     3701.    459.
 4 Adelie           NA     3701.    459.
 5 Adelie         3450     3701.    459.
 6 Adelie         3650     3701.    459.
 7 Adelie         3625     3701.    459.
 8 Adelie         4675     3701.    459.
 9 Adelie         3475     3701.    459.
10 Adelie         4250     3701.    459.
# ℹ 334 more rows

Computing Z-Scores

penguins |>
    inner_join(penguin_stats, 
               join_by(species == species)) |>
    mutate(mass_z = (body_mass_g - mass_mean) / mass_sd) |>
    select(species, body_mass_g, mass_z)

# A tibble: 344 × 3
   species body_mass_g mass_z
   <fct>         <int>  <dbl>
 1 Adelie         3750  0.108
 2 Adelie         3800  0.217
 3 Adelie         3250 -0.983
 4 Adelie           NA NA    
 5 Adelie         3450 -0.547
 6 Adelie         3650 -0.110
 7 Adelie         3625 -0.165
 8 Adelie         4675  2.12 
 9 Adelie         3475 -0.492
10 Adelie         4250  1.20 
# ℹ 334 more rows
…
