Software Tools for Data AnalysisSTA 9750Michael Weylandt – STA 9750 - OMSBA
…
pivot_longer combine columns

pivot_wider split a column

Syntax is hard to remember - use ?pivot_wider and ?pivot_longer for examples

Wide to Long

pivot_longer(D, 
             cols=c(Enrollment, Cap), 
             names_to="Type",  # Quote since not a current column
             values_to="Number")

# A tibble: 12 × 4
  Semester Course     Type       Number
  <chr>    <chr>      <chr>       <dbl>
1 Fall     Accounting Enrollment    200
2 Fall     Accounting Cap           250
3 Fall     Law        Enrollment    100
# ℹ 9 more rows
…
