STA 9750 - OMSBA – Software Tools for Data AnalysisSTA 9750Michael Weylandt
…
Initial Split

# Stratified sampling to ensure balance
splits      <- initial_split(hotels, 
                             strata = children)

hotel_train <- training(splits)
hotel_test  <- testing(splits)

hotel_train

# A tibble: 37,500 × 23
   hotel   lead_time stays_in_weekend_nig…¹ stays_in_week_nights adults children
   <fct>       <dbl>                  <dbl>                <dbl>  <dbl> <fct>   
 1 City_H…       217                      1                    3      2 none    
 2 City_H…         2                      0                    1      2 none    
 3 Resort…        95                      2                    5      2 none    
 4 Resort…       143                      2                    6      2 none    
 5 Resort…       136                      1                    4      2 none    
 6 City_H…        67                      2                    2      2 none    
 7 Resort…        47                      0                    2      2 children
 8 City_H…        56                      0                    3      0 children
 9 City_H…        80                      0                    4      2 none    
10 City_H…         6                      2                    2      2 children
# ℹ 37,490 more rows
# ℹ abbreviated name: ¹​stays_in_weekend_nights
# ℹ 17 more variables: meal <fct>, country <fct>, market_segment <fct>,
#   distribution_channel <fct>, is_repeated_guest <dbl>,
#   previous_cancellations <dbl>, previous_bookings_not_canceled <dbl>,
#   reserved_room_type <fct>, assigned_room_type <fct>, booking_changes <dbl>,
#   deposit_type <fct>, days_in_waiting_list <dbl>, customer_type <fct>, …
…
...
and 36 more lines.

Test Set Assessment

predict(lr_best_fit, hotel_test)

# A tibble: 12,500 × 1
   .pred_class
   <fct>      
 1 none       
 2 none       
 3 none       
 4 none       
 5 none       
 6 none       
 7 none       
 8 none       
 9 none       
10 none       
# ℹ 12,490 more rows

augment(lr_best_fit, hotel_test)

# A tibble: 12,500 × 26
   .pred_class .pred_children .pred_none hotel  lead_time stays_in_weekend_nig…¹
   <fct>                <dbl>      <dbl> <fct>      <dbl>                  <dbl>
 1 none                0.0175      0.983 City_…         1                      1
 2 none                0.0593      0.941 City_…       205                      0
 3 none                0.0204      0.980 City_…       134                      0
 4 none                0.0483      0.952 City_…         5                      2
 5 none                0.0277      0.972 Resor…       230                      2
 6 none                0.111       0.889 Resor…        48                      1
 7 none                0.0581      0.942 Resor…       151                      3
 8 none                0.0289      0.971 City_…         1                      0
 9 none                0.0151      0.985 City_…        61                      2
10 none                0.0483      0.952 Resor…         4                      0
# ℹ 12,490 more rows
# ℹ abbreviated name: ¹​stays_in_weekend_nights
# ℹ 20 more variables: stays_in_week_nights <dbl>, adults <dbl>,
#   children <fct>, meal <fct>, country <fct>, market_segment <fct>,
#   distribution_channel <fct>, is_repeated_guest <dbl>,
#   previous_cancellations <dbl>, previous_bookings_not_canceled <dbl>,
#   reserved_room_type <fct>, assigned_room_type <fct>, …
…
