Software Tools for Data AnalysisSTA 9750Michael Weylandt – STA 9750 - OMSBA
…
Initial Split

# Stratified sampling to ensure balance
splits      <- initial_split(hotels, 
                             strata = children)

hotel_train <- training(splits)
hotel_test  <- testing(splits)

hotel_train

# A tibble: 37,500 × 23
   hotel   lead_time stays_in_weekend_nig…¹ stays_in_week_nights adults children
   <fct>       <dbl>                  <dbl>                <dbl>  <dbl> <fct>   
 1 City_H…       217                      1                    3      2 none    
 2 City_H…         2                      0                    1      2 none    
 3 Resort…        95                      2                    5      2 none    
 4 City_H…        67                      2                    2      2 none    
 5 Resort…        47                      0                    2      2 children
 6 City_H…        56                      0                    3      0 children
 7 City_H…        80                      0                    4      2 none    
 8 City_H…         6                      2                    2      2 children
 9 City_H…        27                      0                    1      1 none    
10 Resort…        46                      0                    2      2 none    
# ℹ 37,490 more rows
# ℹ abbreviated name: ¹​stays_in_weekend_nights
# ℹ 17 more variables: meal <fct>, country <fct>, market_segment <fct>,
#   distribution_channel <fct>, is_repeated_guest <dbl>,
#   previous_cancellations <dbl>, previous_bookings_not_canceled <dbl>,
#   reserved_room_type <fct>, assigned_room_type <fct>, booking_changes <dbl>,
#   deposit_type <fct>, days_in_waiting_list <dbl>, customer_type <fct>, …
…
...
and 36 more lines.

Test Set Assessment

predict(lr_best_fit, hotel_test)

# A tibble: 12,500 × 1
   .pred_class
   <fct>      
 1 none       
 2 children   
 3 none       
 4 none       
 5 none       
 6 none       
 7 none       
 8 none       
 9 none       
10 none       
# ℹ 12,490 more rows

augment(lr_best_fit, hotel_test)

# A tibble: 12,500 × 26
   .pred_class .pred_children .pred_none hotel  lead_time stays_in_weekend_nig…¹
   <fct>                <dbl>      <dbl> <fct>      <dbl>                  <dbl>
 1 none               0.0252       0.975 Resor…       143                      2
 2 children           0.753        0.247 Resor…       136                      1
 3 none               0.0550       0.945 City_…       130                      1
 4 none               0.00317      0.997 Resor…        16                      1
 5 none               0.0350       0.965 City_…        22                      1
 6 none               0.00668      0.993 Resor…        96                      4
 7 none               0.0204       0.980 City_…       134                      0
 8 none               0.0904       0.910 City_…        39                      0
 9 none               0.0483       0.952 City_…         5                      2
10 none               0.0236       0.976 City_…        43                      1
# ℹ 12,490 more rows
# ℹ abbreviated name: ¹​stays_in_weekend_nights
# ℹ 20 more variables: stays_in_week_nights <dbl>, adults <dbl>,
#   children <fct>, meal <fct>, country <fct>, market_segment <fct>,
#   distribution_channel <fct>, is_repeated_guest <dbl>,
#   previous_cancellations <dbl>, previous_bookings_not_canceled <dbl>,
#   reserved_room_type <fct>, assigned_room_type <fct>, …
…
